OpenStreetMap amenity database — osm_amenities • nominatimlite
…
    See also

    Other amenity: 
bbox_to_poly(),
geo_amenity_sf(),
geo_amenity()

    Examples

amenities <- nominatimlite::osm_amenities

amenities

#> # A tibble: 100 × 2
#>    category   amenity       
#>    <chr>      <chr>         
#>  1 Sustenance bar           
#>  2 Sustenance biergarten    
#>  3 Sustenance cafe          
#>  4 Sustenance fast_food     
#>  5 Sustenance food_court    
#>  6 Sustenance ice_cream     
#>  7 Sustenance pub           
#>  8 Sustenance restaurant    
#>  9 Education  college       
#> 10 Education  driving_school
#> # … with 90 more rows
…
